DV4
…
Saving 7 x 5 in image

Each genre has a similar average rating trend throughout its seasons.

//What shows tend to last longer? Do ratings change much across seasons? Can you identify that show on Drama, Family, Fantasy whose ratings just plummeted?

Question 3

tv_genres <- tv_ratings %>%
  filter(av_rating >= 9) %>%
arrange(desc(av_rating))
tv_genres

# A tibble: 93 × 7
   titleId   seasonNumber title                date       av_rating share genres
   <chr>            <dbl> <chr>                <date>         <dbl> <dbl> <chr> 
 1 tt0098887            1 Parenthood           1990-11-13      9.68  1.68 Comed…
 2 tt0106028            6 Homicide: Life on t… 1997-12-05      9.6   0.13 Crime…
 3 tt0108968            5 Touched by an Angel  1998-11-15      9.6   0.08 Drama…
 4 tt0903747            5 Breaking Bad         2013-02-20      9.55 19.0  Crime…
 5 tt0944947            6 Game of Thrones      2016-05-25      9.49 15.2  Actio…
 6 tt3398228            5 BoJack Horseman      2018-09-14      9.47  0.45 Anima…
 7 tt0103352            3 Are You Afraid of t… 1994-02-23      9.43  2.6  Drama…
 8 tt0944947            4 Game of Thrones      2014-05-09      9.43 11.1  Actio…
 9 tt0976014            4 Greek                2011-03-07      9.4   0.01 Comed…
10 tt0090466            4 L.A. Law             1990-04-05      9.4   0.1  Drama 
# ℹ 83 more rows
…
