MD05
…
options(scipen=999)

The two outliers here are DOTA2Ti in both English and Russian.

Question 5

twitch_data <- twitch_data %>% 
  mutate(language = as.factor(language), 
         language = relevel(language, ref = "English"))

twitchdatamodel2 <- lm(average_viewers ~ language, data = twitch_data)

get_regression_table(twitchdatamodel2)

# A tibble: 21 × 7
   term                estimate std_error statistic p_value lower_ci upper_ci
   <chr>                  <dbl>     <dbl>     <dbl>   <dbl>    <dbl>    <dbl>
 1 intercept              5113.      385.    13.3     0        4358.    5868.
 2 language: Arabic        569.     3808.     0.15    0.881   -6903.    8042.
 3 language: Chinese     -1688.     1594.    -1.06    0.29    -4815.    1439.
 4 language: Czech       -3285.     3480.    -0.944   0.345  -10113.    3543.
 5 language: Finnish     -4086.     8480.    -0.482   0.63   -20726.   12555.
 6 language: French      -1606.     1111.    -1.44    0.149   -3787.     575.
 7 language: German       -835.     1270.    -0.657   0.511   -3326.    1657.
 8 language: Greek       -3152.     8480.    -0.372   0.71   -19792.   13489.
 9 language: Hungarian   -2972.     6002.    -0.495   0.621  -14751.    8806.
10 language: Italian     -2907.     2090.    -1.39    0.165   -7009.    1194.
# ℹ 11 more rows

library(broom)
fit2 <- twitchdatamodel2
tidy(fit2)

# A tibble: 21 × 5
   term              estimate std.error statistic  p.value
   <chr>                <dbl>     <dbl>     <dbl>    <dbl>
 1 (Intercept)          5113.      385.    13.3   3.47e-37
 2 languageArabic        569.     3808.     0.150 8.81e- 1
 3 languageChinese     -1688.     1594.    -1.06  2.90e- 1
 4 languageCzech       -3285.     3480.    -0.944 3.45e- 1
 5 languageFinnish     -4086.     8480.    -0.482 6.30e- 1
 6 languageFrench      -1606.     1111.    -1.45  1.49e- 1
 7 languageGerman       -835.     1270.    -0.657 5.11e- 1
 8 languageGreek       -3152.     8480.    -0.372 7.10e- 1
 9 languageHungarian   -2972.     6002.    -0.495 6.21e- 1
10 languageItalian     -2907.     2090.    -1.39  1.65e- 1
# ℹ 11 more rows
…
